\relax 
\providecommand\hyper@newdestlabel[2]{}
\catcode `:\active 
\catcode `;\active 
\catcode `!\active 
\catcode `?\active 
\providecommand\HyperFirstAtBeginDocument{\AtBeginDocument}
\HyperFirstAtBeginDocument{\ifx\hyper@anchor\@undefined
\global\let\oldcontentsline\contentsline
\gdef\contentsline#1#2#3#4{\oldcontentsline{#1}{#2}{#3}}
\global\let\oldnewlabel\newlabel
\gdef\newlabel#1#2{\newlabelxx{#1}#2}
\gdef\newlabelxx#1#2#3#4#5#6{\oldnewlabel{#1}{{#2}{#3}}}
\AtEndDocument{\ifx\hyper@anchor\@undefined
\let\contentsline\oldcontentsline
\let\newlabel\oldnewlabel
\fi}
\fi}
\global\let\hyper@last\relax 
\gdef\HyperFirstAtBeginDocument#1{#1}
\providecommand\HyField@AuxAddToFields[1]{}
\providecommand\HyField@AuxAddToCoFields[2]{}
\gdef \LT@i {\LT@entry 
    {1}{59.22151pt}\LT@entry 
    {1}{424.7866pt}}
\gdef \LT@ii {\LT@entry 
    {1}{59.22151pt}\LT@entry 
    {1}{424.7866pt}}
\gdef \LT@iii {\LT@entry 
    {1}{59.22151pt}\LT@entry 
    {1}{424.7866pt}}
\gdef \LT@iv {\LT@entry 
    {1}{59.22151pt}\LT@entry 
    {1}{424.7866pt}}
\gdef \LT@v {\LT@entry 
    {1}{59.22151pt}\LT@entry 
    {1}{424.7866pt}}
\babel@aux{english}{}
\oddpage@label{1}{1}
\oddpage@label{2}{1}
\oddpage@label{3}{1}
\oddpage@label{4}{1}
\oddpage@label{5}{1}
\gdef \LT@vi {\LT@entry 
    {1}{59.22151pt}\LT@entry 
    {1}{424.7866pt}}
\gdef \LT@vii {\LT@entry 
    {1}{59.22151pt}\LT@entry 
    {1}{424.7866pt}}
\gdef \LT@viii {\LT@entry 
    {1}{59.22151pt}\LT@entry 
    {1}{424.7866pt}}
\oddpage@label{6}{2}
\oddpage@label{7}{2}
\oddpage@label{8}{2}
\oddpage@label{9}{2}
\gdef \LT@ix {\LT@entry 
    {1}{59.22151pt}\LT@entry 
    {1}{424.7866pt}}
\gdef \LT@x {\LT@entry 
    {1}{59.22151pt}\LT@entry 
    {1}{424.7866pt}}
\gdef \LT@xi {\LT@entry 
    {1}{59.22151pt}\LT@entry 
    {1}{424.7866pt}}
\oddpage@label{10}{4}
\newlabel{D08}{{10}{4}{}{table.10}{}}
\@writefile{toc}{\contentsline {paragraph}{Editorial}{4}{table.10}\protected@file@percent }
\oddpage@label{11}{4}
\gdef \LT@xii {\LT@entry 
    {1}{59.22151pt}\LT@entry 
    {1}{424.7866pt}}
\gdef \LT@xiii {\LT@entry 
    {1}{59.22151pt}\LT@entry 
    {1}{424.7866pt}}
\gdef \LT@xiv {\LT@entry 
    {1}{59.22151pt}\LT@entry 
    {1}{424.7866pt}}
\@writefile{toc}{\contentsline {paragraph}{Conference proceedings}{5}{table.11}\protected@file@percent }
\oddpage@label{12}{5}
\@writefile{toc}{\contentsline {paragraph}{Commentary}{5}{table.12}\protected@file@percent }
\oddpage@label{13}{5}
\oddpage@label{14}{5}
\oddpage@label{15}{5}
\gdef \LT@xv {\LT@entry 
    {1}{59.22151pt}\LT@entry 
    {1}{424.7866pt}}
\gdef \LT@xvi {\LT@entry 
    {1}{59.22151pt}\LT@entry 
    {1}{424.7866pt}}
\gdef \LT@xvii {\LT@entry 
    {1}{59.22151pt}\LT@entry 
    {1}{424.7866pt}}
\@writefile{toc}{\contentsline {paragraph}{As Principal Investigator / main recipient}{6}{table.15}\protected@file@percent }
\oddpage@label{16}{6}
\@writefile{toc}{\contentsline {paragraph}{As Co-Investigator}{6}{table.16}\protected@file@percent }
\oddpage@label{17}{6}
\oddpage@label{18}{6}
\gdef \LT@xviii {\LT@entry 
    {1}{59.22151pt}\LT@entry 
    {1}{424.7866pt}}
\gdef \LT@xix {\LT@entry 
    {1}{59.22151pt}\LT@entry 
    {1}{424.7866pt}}
\gdef \LT@xx {\LT@entry 
    {1}{59.22151pt}\LT@entry 
    {1}{424.7866pt}}
\gdef \LT@xxi {\LT@entry 
    {1}{59.22151pt}\LT@entry 
    {1}{424.7866pt}}
\gdef \LT@xxii {\LT@entry 
    {1}{59.22151pt}\LT@entry 
    {1}{424.7866pt}}
\oddpage@label{19}{7}
\oddpage@label{20}{7}
\@writefile{toc}{\contentsline {paragraph}{Committee participation}{7}{table.20}\protected@file@percent }
\oddpage@label{21}{7}
\@writefile{toc}{\contentsline {paragraph}{Ad-hoc committee}{7}{table.21}\protected@file@percent }
\oddpage@label{22}{7}
\gdef \LT@xxiii {\LT@entry 
    {1}{59.22151pt}\LT@entry 
    {1}{424.7866pt}}
\gdef \LT@xxiv {\LT@entry 
    {1}{59.22151pt}\LT@entry 
    {1}{424.7866pt}}
\gdef \LT@xxv {\LT@entry 
    {1}{59.22151pt}\LT@entry 
    {1}{424.7866pt}}
\gdef \LT@xxvi {\LT@entry 
    {1}{59.22151pt}\LT@entry 
    {1}{424.7866pt}}
\gdef \LT@xxvii {\LT@entry 
    {1}{59.22151pt}\LT@entry 
    {1}{424.7866pt}}
\gdef \LT@xxviii {\LT@entry 
    {1}{59.22151pt}\LT@entry 
    {1}{424.7866pt}}
\gdef \LT@xxix {\LT@entry 
    {1}{59.22151pt}\LT@entry 
    {1}{424.7866pt}}
\@writefile{toc}{\contentsline {paragraph}{Hiring committees}{8}{table.22}\protected@file@percent }
\oddpage@label{23}{8}
\@writefile{toc}{\contentsline {paragraph}{Juries}{8}{table.23}\protected@file@percent }
\oddpage@label{24}{8}
\oddpage@label{25}{8}
\oddpage@label{26}{8}
\@writefile{toc}{\contentsline {paragraph}{PhD committees}{8}{table.26}\protected@file@percent }
\oddpage@label{27}{8}
\@writefile{toc}{\contentsline {paragraph}{Expertise}{8}{table.27}\protected@file@percent }
\oddpage@label{28}{8}
\@writefile{toc}{\contentsline {paragraph}{Associate editor positions}{8}{table.28}\protected@file@percent }
\oddpage@label{29}{8}
\@writefile{toc}{\contentsline {paragraph}{Guest editor positions}{8}{table.29}\protected@file@percent }
\oddpage@label{30}{8}
\gdef \LT@xxx {\LT@entry 
    {1}{59.22151pt}\LT@entry 
    {1}{424.7866pt}}
\gdef \LT@xxxi {\LT@entry 
    {1}{59.22151pt}\LT@entry 
    {1}{424.7866pt}}
\gdef \LT@xxxii {\LT@entry 
    {1}{59.22151pt}\LT@entry 
    {1}{424.7866pt}}
\gdef \LT@xxxiii {\LT@entry 
    {1}{59.22151pt}\LT@entry 
    {1}{424.7866pt}}
\@writefile{toc}{\contentsline {paragraph}{Reviewing}{9}{table.30}\protected@file@percent }
\oddpage@label{31}{9}
\@writefile{toc}{\contentsline {paragraph}{Grant evaluations}{9}{table.31}\protected@file@percent }
\oddpage@label{32}{9}
\oddpage@label{33}{9}
\newlabel{LastPage}{{}{9}{}{page.9}{}}
\xdef\lastpage@lastpage{9}
\xdef\lastpage@lastpageHy{9}
